{
  "imports": [],
  "translations": [
    {
      "name": "SSE Uploader Widget",
      "language": "en"
    }
  ],
  "availableToAllPages": true,
  "jsEditable": true,
  "minWidth": 1,
  "globalEnabled": true,
  "config": {}
}