{
  "repositoryId": "SSEUploaderWidget_v1",
  "widgetType": "SSEUploaderWidget",
  "version": 1,
  "displayName": "SSE Uploader Widget",
  "global": false,
  "source": 101,
  "javascript": "SSEUploaderWidget"
}