{
  "imports": [],
  "translations": [
    {
      "name": "Contact Us content",
      "language": "en"
    }
  ],
  "availableToAllPages": true,
  "jsEditable": true,
  "minWidth": 1,
  "globalEnabled": false,
  "config": {}
}